C:\Users\aldair.acero\Academia\ETS2\jspApp\src\main\java\com\softtek\academy\javaweb\dao\Conector.java
C:\Users\aldair.acero\Academia\ETS2\jspApp\src\main\java\com\softtek\academy\javaweb\model\UserBean.java
C:\Users\aldair.acero\Academia\ETS2\jspApp\src\main\java\com\softtek\academy\javaweb\model\Task.java
C:\Users\aldair.acero\Academia\ETS2\jspApp\src\main\java\com\softtek\academy\javaweb\dao\ObjDao.java
C:\Users\aldair.acero\Academia\ETS2\jspApp\src\main\java\com\softtek\academy\javaweb\model\ToDoList.java
C:\Users\aldair.acero\Academia\ETS2\jspApp\src\main\java\com\softtek\academy\javaweb\dao\ConexionMysql.java
C:\Users\aldair.acero\Academia\ETS2\jspApp\src\main\java\com\softtek\academy\javaweb\model\PasatiemposBean.java
C:\Users\aldair.acero\Academia\ETS2\jspApp\src\main\java\com\softtek\academy\javaweb\controller\ControllerServlet.java
C:\Users\aldair.acero\Academia\ETS2\jspApp\src\main\java\com\softtek\academy\javaweb\controller\ControladorServlet.java
C:\Users\aldair.acero\Academia\ETS2\jspApp\src\main\java\com\softtek\academy\javaweb\dao\LoginDao.java
